{
    "name": "magento/project-community-edition",
    "description": "eCommerce Platform for Growth (Community Edition)",
    "type": "project",
    "version": "2.1.0",
    "license": [
        "OSL-3.0",
        "AFL-3.0"
    ],
    "require": {
        "magento/product-community-edition": "2.1.6",
        "composer/composer": "@alpha",
        "limesharp/stockists": "2.0.7",
        "olegkoval/magento2-regenerate-url-rewrites": "dev-master",
        "msp/cashondelivery": "^1.2",
        "magepal/magento2-form-field-manager": "^1.0",
        "mageplaza/module-core": "^1.3",
        "phoenix/module-cashondelivery": "^1.0",
        "msp/recaptcha": "^2.0",
        "php-cuong/magento2-regions-manager": "^2.2",
        "ebizmarts/mailchimp-lib": "^3.0",
        "mailchimp/mc-magento2": "1.1.33"

    },
    "require-dev": {
        "phpunit/phpunit": "4.1.0",
        "squizlabs/php_codesniffer": "1.5.3",
        "phpmd/phpmd": "@stable",
        "pdepend/pdepend": "2.2.2",
        "fabpot/php-cs-fixer": "~1.2",
        "lusitanian/oauth": "~0.3 <=0.7.0",
        "sebastian/phpcpd": "2.0.0"
    },
    "config": {
        "use-include-path": true
    },
    "autoload": {
        "psr-4": {
            "Magento\\Framework\\": "lib/internal/Magento/Framework/",
            "Magento\\Setup\\": "setup/src/Magento/Setup/",
            "Magento\\": "app/code/Magento/"
        },
        "psr-0": {
            "": "app/code/"
        },
        "files": [
            "app/etc/NonComposerComponentRegistration.php"
        ]
    },
    "autoload-dev": {
        "psr-4": {
            "Magento\\Sniffs\\": "dev/tests/static/framework/Magento/Sniffs/",
            "Magento\\Tools\\": "dev/tools/Magento/Tools/",
            "Magento\\Tools\\Sanity\\": "dev/build/publication/sanity/Magento/Tools/Sanity/",
            "Magento\\TestFramework\\Inspection\\": "dev/tests/static/framework/Magento/TestFramework/Inspection/",
            "Magento\\TestFramework\\Utility\\": "dev/tests/static/framework/Magento/TestFramework/Utility/"
        }
    },
    "minimum-stability": "alpha",
    "prefer-stable": true,
    "repositories": {
        "0": {
            "type": "composer",
            "url": "https://repo.magento.com/"
        }
    },
    "extra": {
        "magento-force": "override"
    }
}
